%YAML 1.1
%TAG !u! tag:unity3d.com,2011:
--- !u!114 &11400000
MonoBehaviour:
  m_ObjectHideFlags: 0
  m_CorrespondingSourceObject: {fileID: 0}
  m_PrefabInstance: {fileID: 0}
  m_PrefabAsset: {fileID: 0}
  m_GameObject: {fileID: 0}
  m_Enabled: 1
  m_EditorHideFlags: 0
  m_Script: {fileID: 11500000, guid: 468a46d0ae32c3544b7d98094e6448a9, type: 3}
  m_Name: AddressableAssetSettings
  m_EditorClassIdentifier: 
  m_DefaultGroup: a2a0ec521db7fdc488caa8c5f0d7dc5f
  m_OptimizeCatalogSize: 0
  m_BuildRemoteCatalog: 0
  m_BundleLocalCatalog: 0
  m_DisableCatalogUpdateOnStart: 0
  m_IgnoreUnsupportedFilesInBuild: 0
  m_UniqueBundleIds: 0
  m_maxConcurrentWebRequests: 500
  m_ContiguousBundles: 0
  m_RemoteCatalogBuildPath:
    m_Id: 
  m_RemoteCatalogLoadPath:
    m_Id: 
  m_overridePlayerVersion: 
  m_GroupAssets:
  - {fileID: 11400000, guid: 1b4193619865cca46aa1d38bc283d6af, type: 2}
  - {fileID: 11400000, guid: bfbfd0254b7c4584589ed4c6818d8d63, type: 2}
  m_BuildSettings:
    m_CompileScriptsInVirtualMode: 0
    m_CleanupStreamingAssetsAfterBuilds: 1
    m_LogResourceManagerExceptions: 1
    m_BundleBuildPath: Temp/com.unity.addressables/AssetBundles
  m_ProfileSettings:
    m_Profiles:
    - m_InheritedParent: 
      m_Id: f7ea7afc103a3e74ab00f21752fed3f5
      m_ProfileName: Default
      m_Values:
      - m_Id: c6be82f6f6fdcaa47bf38681cb205a87
        m_Value: '[UnityEditor.EditorUserBuildSettings.activeBuildTarget]'
      - m_Id: 7378193967ea0784089afadd5ea327f2
        m_Value: '[UnityEngine.AddressableAssets.Addressables.BuildPath]/[BuildTarget]'
      - m_Id: 26866c78c01f35c449446dc90069e5d1
        m_Value: '{UnityEngine.AddressableAssets.Addressables.RuntimePath}/[BuildTarget]'
      - m_Id: a94f51f266f553e4ab9475c7a9126962
        m_Value: ServerData/[BuildTarget]
      - m_Id: 1ce1fa1bd33d13d4cbd75ee56789a068
        m_Value: http://localhost/[BuildTarget]
    m_ProfileEntryNames:
    - m_Id: c6be82f6f6fdcaa47bf38681cb205a87
      m_Name: BuildTarget
      m_InlineUsage: 0
    - m_Id: 7378193967ea0784089afadd5ea327f2
      m_Name: LocalBuildPath
      m_InlineUsage: 0
    - m_Id: 26866c78c01f35c449446dc90069e5d1
      m_Name: LocalLoadPath
      m_InlineUsage: 0
    - m_Id: a94f51f266f553e4ab9475c7a9126962
      m_Name: RemoteBuildPath
      m_InlineUsage: 0
    - m_Id: 1ce1fa1bd33d13d4cbd75ee56789a068
      m_Name: RemoteLoadPath
      m_InlineUsage: 0
    m_ProfileVersion: 1
  m_LabelTable:
    m_LabelNames:
    - default
  m_SchemaTemplates: []
  m_GroupTemplateObjects:
  - {fileID: 11400000, guid: 2926705e5d8cebd44b302a41ab88e687, type: 2}
  m_InitializationObjects: []
  m_CertificateHandlerType:
    m_AssemblyName: 
    m_ClassName: 
  m_ActivePlayerDataBuilderIndex: 3
  m_DataBuilders:
  - {fileID: 11400000, guid: b9721cccc843339458baf45b0bcc7f62, type: 2}
  - {fileID: 11400000, guid: 5e995c5f1fb508947bffdc820aafe407, type: 2}
  - {fileID: 11400000, guid: 5142273f2c0b30047b3140075293b577, type: 2}
  - {fileID: 11400000, guid: 0f316930033a45e4f9ba2c42438c31cf, type: 2}
  m_ActiveProfileId: f7ea7afc103a3e74ab00f21752fed3f5
  m_HostingServicesManager:
    m_HostingServiceInfos: []
    m_Settings: {fileID: 11400000}
    m_NextInstanceId: 0
    m_RegisteredServiceTypeRefs: []
